[gd_scene load_steps=7 format=2]

[ext_resource path="res://Player.gd" type="Script" id=1]
[ext_resource path="res://Art/Bird_down.svg" type="Texture" id=2]
[ext_resource path="res://Art/Bird_up.svg" type="Texture" id=3]

[sub_resource type="SpriteFrames" id=1]
animations = [ {
"frames": [ ExtResource( 2 ), ExtResource( 3 ) ],
"loop": true,
"name": "fly",
"speed": 5.0
} ]

[sub_resource type="CapsuleShape2D" id=2]
radius = 16.0
height = 0.0

[sub_resource type="CapsuleShape2D" id=3]
radius = 14.0
height = 0.0

[node name="Player" type="KinematicBody2D"]
script = ExtResource( 1 )
fly_speed = -400
gravity = 200

[node name="AnimatedSprite" type="AnimatedSprite" parent="."]
frames = SubResource( 1 )
animation = "fly"

[node name="CapsuleShape2D" type="CollisionShape2D" parent="."]
shape = SubResource( 2 )

[node name="CapsuleShape2D2" type="CollisionShape2D" parent="."]
position = Vector2( 16, 0 )
shape = SubResource( 3 )

[node name="CapsuleShape2D3" type="CollisionShape2D" parent="."]
position = Vector2( -16, 0 )
shape = SubResource( 3 )

[node name="VisibilityNotifier2D" type="VisibilityNotifier2D" parent="."]
[connection signal="viewport_exited" from="VisibilityNotifier2D" to="." method="_on_VisibilityNotifier2D_viewport_exited"]
